{
  "collectionName": "components_images_multiple_square_images",
  "info": {
    "displayName": "Multiple square images",
    "icon": "square",
    "description": ""
  },
  "options": {},
  "attributes": {
    "elements": {
      "type": "component",
      "repeatable": true,
      "component": "images.square-image"
    },
    "rotation": {
      "type": "string",
      "default": "5"
    }
  }
}
