{
  "collectionName": "components_images_portrait_landscapes",
  "info": {
    "displayName": "Portrait + landscape",
    "icon": "dragon",
    "description": ""
  },
  "options": {},
  "attributes": {
    "portrait_el": {
      "type": "component",
      "repeatable": false,
      "component": "images.portrait-image",
      "required": true
    },
    "landscape_el": {
      "type": "component",
      "repeatable": false,
      "component": "images.landscape-image",
      "required": true
    }
  }
}
