{
  "collectionName": "components_images_square_images",
  "info": {
    "displayName": "Square image",
    "icon": "vector-square",
    "description": ""
  },
  "options": {},
  "attributes": {
    "image": {
      "type": "media",
      "multiple": false,
      "required": true,
      "allowedTypes": [
        "images",
        "videos"
      ]
    },
    "rotation": {
      "type": "string"
    },
    "alt_text": {
      "type": "string"
    },
    "mockup": {
      "type": "boolean",
      "default": false
    }
  }
}
