{
  "collectionName": "components_sections_intros",
  "info": {
    "displayName": "Intro",
    "icon": "edit",
    "description": ""
  },
  "options": {},
  "attributes": {
    "anchor_link": {
      "type": "component",
      "repeatable": false,
      "component": "sections.anchor-link"
    },
    "title": {
      "type": "string"
    },
    "description": {
      "type": "richtext"
    },
    "external_link_text": {
      "type": "string"
    },
    "external_link_href": {
      "type": "string"
    },
    "tools": {
      "type": "component",
      "repeatable": true,
      "component": "sections.simple-text"
    }
  }
}
